{
  "name": "Repo Locker",
  "description": "Locking for code repositories",
  "key": "atlassian.hipchat.repolocker",
  "vendor": {
    "url": "https://www.atlassian.com/",
    "name": "Atlassian"
  },
  "links": {
    "self": "{{localBaseUrl}}/atlassian-connect.json",
    "homepage": "{{localBaseUrl}}/atlassian-connect.json"
  },
  "capabilities": {
    "hipchatApiConsumer": {
      "fromName": "Repo Locker",
      "avatar": "{{localBaseUrl}}/images/lock-small.png",
      "scopes": [
        "send_notification",
        "view_room",
        "admin_room"
      ]
    },
    "installable": {
      "allowRoom": true,
      "allowGlobal": false,
      "callbackUrl": "{{localBaseUrl}}/installable"
    },
    "webPanel": [{
        "name" : {
          "value": "Repo Locker"
        },
        "key": "sidebar.repolocker",
        "url": "{{localBaseUrl}}/list?userId=1",
        "location": "hipchat.sidebar.right"
    }],
    "glance": [{
        "name": {
          "value": "Repo Locker"
        },
        "key": "glance.repolocker",
        "queryUrl": "{{localBaseUrl}}/glance?userId=1",
        "target": "sidebar.repolocker",
        "icon": {
          "url": "{{localBaseUrl}}/images/icon.png",
          "url@2x": "{{localBaseUrl}}/images/icon.png"
        }
    }],
    "webhook": {
      "url": "{{localBaseUrl}}/webhook",
      "pattern": "^/repos",
      "event": "room_message",
      "name": "Lock repos",
      "authentication": "jwt"
    }
  }
}
