{
  "version": "v4",
  "repo": "borisyankov/DefinitelyTyped",
  "ref": "master",
  "path": "typings",
  "bundle": "typings/tsd.d.ts",
  "installed": {
    "sequelize/sequelize.d.ts": {
      "commit": "fb2b3b1e068c9ff7d8f9b0851c08d37d96c95c38"
    },
    "bluebird/bluebird.d.ts": {
      "commit": "fb2b3b1e068c9ff7d8f9b0851c08d37d96c95c38"
    },
    "validator/validator.d.ts": {
      "commit": "fb2b3b1e068c9ff7d8f9b0851c08d37d96c95c38"
    },
    "lodash/lodash.d.ts": {
      "commit": "fb2b3b1e068c9ff7d8f9b0851c08d37d96c95c38"
    },
    "node/node.d.ts": {
      "commit": "fb2b3b1e068c9ff7d8f9b0851c08d37d96c95c38"
    },
    "socket.io/socket.io.d.ts": {
      "commit": "fb2b3b1e068c9ff7d8f9b0851c08d37d96c95c38"
    },
    "serve-static/serve-static.d.ts": {
      "commit": "fb2b3b1e068c9ff7d8f9b0851c08d37d96c95c38"
    },
    "express/express.d.ts": {
      "commit": "fb2b3b1e068c9ff7d8f9b0851c08d37d96c95c38"
    },
    "mime/mime.d.ts": {
      "commit": "fb2b3b1e068c9ff7d8f9b0851c08d37d96c95c38"
    }
  }
}
